collisions: 
cell 0: 42	cell 1: 41	cell 2: 47	cell 3: 49	cell 4: 48	cell 5: 38	cell 6: 38	cell 7: 45	cell 8: 48	cell 9: 41	cell 10: 46	cell 11: 40	cell 12: 43	cell 13: 32	cell 14: 43	cell 15: 43	cell 16: 49	cell 17: 41	cell 18: 48	cell 19: 48
cell 20: 39	cell 21: 48	cell 22: 36	cell 23: 47	cell 24: 50	cell 25: 39	cell 26: 41	cell 27: 48	cell 28: 40	cell 29: 42	cell 30: 42	cell 31: 49	cell 32: 45	cell 33: 40	cell 34: 41	cell 35: 34	cell 36: 37	cell 37: 41	cell 38: 52	cell 39: 50
cell 40: 40	cell 41: 48	cell 42: 52	cell 43: 45	cell 44: 43	cell 45: 44	cell 46: 47	cell 47: 46	cell 48: 41	cell 49: 47	cell 50: 32	cell 51: 36	cell 52: 39	cell 53: 29	cell 54: 47	cell 55: 51	cell 56: 37	cell 57: 47	cell 58: 48	cell 59: 46
cell 60: 48	cell 61: 36	cell 62: 42	cell 63: 43	cell 64: 48	cell 65: 36	cell 66: 49	cell 67: 42	cell 68: 35	cell 69: 51	cell 70: 48	cell 71: 36	cell 72: 32	cell 73: 51	cell 74: 45	cell 75: 40	cell 76: 48	cell 77: 49	cell 78: 38	cell 79: 35
cell 80: 34	cell 81: 55	cell 82: 51	cell 83: 34	cell 84: 48	cell 85: 45	cell 86: 41	cell 87: 33	cell 88: 51	cell 89: 34	cell 90: 45	cell 91: 37	cell 92: 48	cell 93: 44	cell 94: 51	cell 95: 43	cell 96: 48	cell 97: 55	cell 98: 39	cell 99: 51
cell 100: 48	cell 101: 37	cell 102: 47	cell 103: 46	cell 104: 42	cell 105: 44	cell 106: 37	cell 107: 43	cell 108: 41	cell 109: 40	cell 110: 45	cell 111: 40	cell 112: 37	cell 113: 46	cell 114: 40	cell 115: 43	cell 116: 48	cell 117: 40	cell 118: 37	cell 119: 38
cell 120: 41	cell 121: 45	cell 122: 50	cell 123: 47	cell 124: 45	cell 125: 49	cell 126: 40	cell 127: 44	cell 128: 41	cell 129: 36	cell 130: 46	cell 131: 44	cell 132: 57	cell 133: 33	cell 134: 42	cell 135: 58	cell 136: 40	cell 137: 39	cell 138: 44	cell 139: 48
cell 140: 38	cell 141: 42	cell 142: 39	cell 143: 39	cell 144: 39	cell 145: 38	cell 146: 36	cell 147: 42	cell 148: 39	cell 149: 36	cell 150: 33	cell 151: 31	cell 152: 48	cell 153: 43	cell 154: 36	cell 155: 38	cell 156: 35	cell 157: 35	cell 158: 44	cell 159: 58
cell 160: 38	cell 161: 46	cell 162: 39	cell 163: 46	cell 164: 47	cell 165: 45	cell 166: 43	cell 167: 39	cell 168: 43	cell 169: 43	cell 170: 52	cell 171: 55	cell 172: 34	cell 173: 29	cell 174: 42	cell 175: 45	cell 176: 46	cell 177: 36	cell 178: 44	cell 179: 48
cell 180: 39	cell 181: 48	cell 182: 41	cell 183: 56	cell 184: 57	cell 185: 35	cell 186: 42	cell 187: 38	cell 188: 46	cell 189: 37	cell 190: 42	cell 191: 41	cell 192: 40	cell 193: 37	cell 194: 45	cell 195: 45	cell 196: 45	cell 197: 45	cell 198: 38	cell 199: 42
cell 200: 37	cell 201: 49	cell 202: 38	cell 203: 47	cell 204: 49	cell 205: 38	cell 206: 35	cell 207: 63	cell 208: 30	cell 209: 43	cell 210: 40	cell 211: 45	cell 212: 37	cell 213: 29	cell 214: 43	cell 215: 43	cell 216: 51	cell 217: 51	cell 218: 48	cell 219: 34
cell 220: 50	cell 221: 40	cell 222: 58	cell 223: 53	cell 224: 34	cell 225: 32	cell 226: 36	cell 227: 33	cell 228: 30	cell 229: 38	cell 230: 44	cell 231: 41	cell 232: 53	cell 233: 35	cell 234: 39	cell 235: 46	cell 236: 43	cell 237: 53	cell 238: 44	cell 239: 47
cell 240: 49	cell 241: 52	cell 242: 41	cell 243: 49	cell 244: 33	cell 245: 53	cell 246: 43	cell 247: 34	cell 248: 46	cell 249: 33	cell 250: 26	cell 251: 38	cell 252: 41	cell 253: 32	cell 254: 45	cell 255: 49	cell 256: 42	cell 257: 38	cell 258: 46	cell 259: 61
cell 260: 46	cell 261: 49	cell 262: 49	cell 263: 47	cell 264: 47	cell 265: 36	cell 266: 37	cell 267: 37	cell 268: 45	cell 269: 49	cell 270: 52	cell 271: 44	cell 272: 45	cell 273: 41	cell 274: 30	cell 275: 43	cell 276: 65	cell 277: 46	cell 278: 47	cell 279: 34
cell 280: 40	cell 281: 52	cell 282: 44	cell 283: 37	cell 284: 37	cell 285: 49	cell 286: 44	cell 287: 49	cell 288: 38	cell 289: 59	cell 290: 52	cell 291: 48	cell 292: 47	cell 293: 44	cell 294: 36	cell 295: 42	cell 296: 46	cell 297: 39	cell 298: 47	cell 299: 46
cell 300: 51	cell 301: 44	cell 302: 39	cell 303: 37	cell 304: 54	cell 305: 42	cell 306: 52	cell 307: 44	cell 308: 56	cell 309: 38	cell 310: 33	cell 311: 47	cell 312: 42	cell 313: 45	cell 314: 52	cell 315: 33	cell 316: 40	cell 317: 48	cell 318: 35	cell 319: 46
cell 320: 46	cell 321: 45	cell 322: 39	cell 323: 59	cell 324: 51	cell 325: 37	cell 326: 38	cell 327: 48	cell 328: 39	cell 329: 47	cell 330: 55	cell 331: 51	cell 332: 46	cell 333: 35	cell 334: 40	cell 335: 47	cell 336: 47	cell 337: 46	cell 338: 46	cell 339: 37
cell 340: 44	cell 341: 52	cell 342: 46	cell 343: 46	cell 344: 45	cell 345: 41	cell 346: 47	cell 347: 48	cell 348: 37	cell 349: 44	cell 350: 44	cell 351: 51	cell 352: 46	cell 353: 53	cell 354: 33	cell 355: 44	cell 356: 35	cell 357: 52	cell 358: 44	cell 359: 36
cell 360: 57	cell 361: 40	cell 362: 55	cell 363: 37	cell 364: 49	cell 365: 40	cell 366: 49	cell 367: 52	cell 368: 44	cell 369: 46	cell 370: 39	cell 371: 59	cell 372: 34	cell 373: 51	cell 374: 55	cell 375: 42	cell 376: 40	cell 377: 37	cell 378: 42	cell 379: 50
cell 380: 42	cell 381: 34	cell 382: 49	cell 383: 48	cell 384: 51	cell 385: 40	cell 386: 33	cell 387: 47	cell 388: 48	cell 389: 42	cell 390: 45	cell 391: 42	cell 392: 42	cell 393: 49	cell 394: 48	cell 395: 32	cell 396: 52	cell 397: 55	cell 398: 45	cell 399: 49
cell 400: 24	cell 401: 38	cell 402: 56	cell 403: 54	cell 404: 51	cell 405: 53	cell 406: 56	cell 407: 54	cell 408: 43	cell 409: 48	cell 410: 51	cell 411: 41	cell 412: 42	cell 413: 40	cell 414: 47	cell 415: 47	cell 416: 43	cell 417: 42	cell 418: 42	cell 419: 45
cell 420: 43	cell 421: 43	cell 422: 43	cell 423: 34	cell 424: 52	cell 425: 37	cell 426: 34	cell 427: 60	cell 428: 52	cell 429: 39	cell 430: 56	cell 431: 44	cell 432: 46	cell 433: 57	cell 434: 59	cell 435: 55	cell 436: 56	cell 437: 42	cell 438: 43	cell 439: 51
cell 440: 49	cell 441: 39	cell 442: 49	cell 443: 48	cell 444: 43	cell 445: 46	cell 446: 40	cell 447: 42	cell 448: 41	cell 449: 58	cell 450: 43	cell 451: 44	cell 452: 39	cell 453: 62	cell 454: 44	cell 455: 45	cell 456: 46	cell 457: 59	cell 458: 43	cell 459: 51
cell 460: 38	cell 461: 42	cell 462: 45	cell 463: 37	cell 464: 50	cell 465: 46	cell 466: 47	cell 467: 39	cell 468: 44	cell 469: 49	cell 470: 45	cell 471: 50	cell 472: 53	cell 473: 40	cell 474: 47	cell 475: 47	cell 476: 46	cell 477: 40	cell 478: 42	cell 479: 33
cell 480: 46	cell 481: 31	cell 482: 47	cell 483: 46	cell 484: 35	cell 485: 47	cell 486: 40	cell 487: 48	cell 488: 49	cell 489: 40	cell 490: 49	cell 491: 45	cell 492: 37	cell 493: 46	cell 494: 42	cell 495: 47	cell 496: 41	cell 497: 48	cell 498: 34	cell 499: 58
cell 500: 37	cell 501: 48	cell 502: 46	cell 503: 43	cell 504: 60	cell 505: 53	cell 506: 37	cell 507: 51	cell 508: 56	cell 509: 56	cell 510: 45	cell 511: 49	cell 512: 52	cell 513: 51	cell 514: 33	cell 515: 39	cell 516: 55	cell 517: 38	cell 518: 41	cell 519: 40
cell 520: 31	cell 521: 38	cell 522: 49	cell 523: 38	cell 524: 41	cell 525: 47	cell 526: 36	cell 527: 41	cell 528: 43	cell 529: 43	cell 530: 48	cell 531: 64	cell 532: 40	cell 533: 50	cell 534: 44	cell 535: 31	cell 536: 31	cell 537: 40	cell 538: 42	cell 539: 54
cell 540: 66	cell 541: 48	cell 542: 36	cell 543: 38	cell 544: 48	cell 545: 42	cell 546: 38	cell 547: 50	cell 548: 49	cell 549: 32	cell 550: 31	cell 551: 43	cell 552: 41	cell 553: 54	cell 554: 45	cell 555: 51	cell 556: 38	cell 557: 37	cell 558: 48	cell 559: 38
cell 560: 40	cell 561: 50	cell 562: 38	cell 563: 48	cell 564: 44	cell 565: 46	cell 566: 41	cell 567: 50	cell 568: 38	cell 569: 54	cell 570: 42	cell 571: 40	cell 572: 35	cell 573: 45	cell 574: 46	cell 575: 54	cell 576: 45	cell 577: 51	cell 578: 45	cell 579: 50
cell 580: 51	cell 581: 58	cell 582: 56	cell 583: 51	cell 584: 50	cell 585: 53	cell 586: 44	cell 587: 43	cell 588: 38	cell 589: 51	cell 590: 55	cell 591: 51	cell 592: 42	cell 593: 39	cell 594: 49	cell 595: 47	cell 596: 54	cell 597: 49	cell 598: 41	cell 599: 36
cell 600: 52	cell 601: 50	cell 602: 43	cell 603: 43	cell 604: 43	cell 605: 49	cell 606: 48	cell 607: 39	cell 608: 44	cell 609: 50	cell 610: 39	cell 611: 41	cell 612: 42	cell 613: 44	cell 614: 41	cell 615: 46	cell 616: 45	cell 617: 39	cell 618: 47	cell 619: 45
cell 620: 43	cell 621: 45	cell 622: 52	cell 623: 43	cell 624: 40	cell 625: 41	cell 626: 39	cell 627: 37	cell 628: 44	cell 629: 46	cell 630: 41	cell 631: 44	cell 632: 56	cell 633: 30	cell 634: 54	cell 635: 48	cell 636: 39	cell 637: 41	cell 638: 28	cell 639: 42
cell 640: 50	cell 641: 52	cell 642: 38	cell 643: 41	cell 644: 45	cell 645: 40	cell 646: 49	cell 647: 43	cell 648: 42	cell 649: 32	cell 650: 37	cell 651: 48	cell 652: 38	cell 653: 38	cell 654: 45	cell 655: 44	cell 656: 44	cell 657: 54	cell 658: 54	cell 659: 41
cell 660: 53	cell 661: 51	cell 662: 41	cell 663: 41	cell 664: 40	cell 665: 46	cell 666: 39	cell 667: 37	cell 668: 48	cell 669: 40	cell 670: 34	cell 671: 52	cell 672: 55	cell 673: 47	cell 674: 45	cell 675: 55	cell 676: 43	cell 677: 50	cell 678: 35	cell 679: 51
cell 680: 35	cell 681: 44	cell 682: 47	cell 683: 42	cell 684: 57	cell 685: 44	cell 686: 48	cell 687: 33	cell 688: 38	cell 689: 48	cell 690: 33	cell 691: 40	cell 692: 45	cell 693: 42	cell 694: 47	cell 695: 41	cell 696: 40	cell 697: 41	cell 698: 48	cell 699: 55
cell 700: 42	cell 701: 39	cell 702: 37	cell 703: 58	cell 704: 42	cell 705: 40	cell 706: 63	cell 707: 45	cell 708: 43	cell 709: 44	cell 710: 42	cell 711: 41	cell 712: 51	cell 713: 53	cell 714: 54	cell 715: 39	cell 716: 46	cell 717: 50	cell 718: 41	cell 719: 46
cell 720: 49	cell 721: 47	cell 722: 35	cell 723: 43	cell 724: 34	cell 725: 53	cell 726: 53	cell 727: 46	cell 728: 44	cell 729: 47	cell 730: 41	cell 731: 49	cell 732: 48	cell 733: 51	cell 734: 39	cell 735: 45	cell 736: 46	cell 737: 49	cell 738: 36	cell 739: 35
cell 740: 40	cell 741: 38	cell 742: 31	cell 743: 42	cell 744: 50	cell 745: 48	cell 746: 43	cell 747: 46	cell 748: 43	cell 749: 41	cell 750: 46	cell 751: 36	cell 752: 47	cell 753: 42	cell 754: 38	cell 755: 55	cell 756: 42	cell 757: 49	cell 758: 44	cell 759: 49
cell 760: 48	cell 761: 44	cell 762: 54	cell 763: 45	cell 764: 35	cell 765: 43	cell 766: 57	cell 767: 54	cell 768: 53	cell 769: 53	cell 770: 40	cell 771: 46	cell 772: 44	cell 773: 39	cell 774: 39	cell 775: 48	cell 776: 36	cell 777: 48	cell 778: 45	cell 779: 50
cell 780: 40	cell 781: 46	cell 782: 50	cell 783: 34	cell 784: 54	cell 785: 50	cell 786: 46	cell 787: 33	cell 788: 46	cell 789: 50	cell 790: 35	cell 791: 52	cell 792: 39	cell 793: 42	cell 794: 43	cell 795: 56	cell 796: 53	cell 797: 41	cell 798: 49	cell 799: 51
cell 800: 47	cell 801: 50	cell 802: 41	cell 803: 50	cell 804: 45	cell 805: 47	cell 806: 38	cell 807: 51	cell 808: 41	cell 809: 48	cell 810: 53	cell 811: 47	cell 812: 48	cell 813: 41	cell 814: 50	cell 815: 44	cell 816: 50	cell 817: 42	cell 818: 52	cell 819: 49
cell 820: 43	cell 821: 37	cell 822: 41	cell 823: 48	cell 824: 41	cell 825: 50	cell 826: 46	cell 827: 34	cell 828: 43	cell 829: 49	cell 830: 36	cell 831: 37	cell 832: 39	cell 833: 49	cell 834: 42	cell 835: 50	cell 836: 46	cell 837: 44	cell 838: 46	cell 839: 48
cell 840: 32	cell 841: 52	cell 842: 49	cell 843: 42	cell 844: 64	cell 845: 42	cell 846: 50	cell 847: 52	cell 848: 36	cell 849: 41	cell 850: 45	cell 851: 56	cell 852: 48	cell 853: 54	cell 854: 53	cell 855: 50	cell 856: 40	cell 857: 52	cell 858: 49	cell 859: 55
cell 860: 41	cell 861: 42	cell 862: 38	cell 863: 43	cell 864: 50	cell 865: 51	cell 866: 50	cell 867: 39	cell 868: 47	cell 869: 48	cell 870: 48	cell 871: 30	cell 872: 45	cell 873: 53	cell 874: 52	cell 875: 44	cell 876: 44	cell 877: 36	cell 878: 48	cell 879: 44
cell 880: 55	cell 881: 55	cell 882: 53	cell 883: 38	cell 884: 41	cell 885: 45	cell 886: 43	cell 887: 51	cell 888: 53	cell 889: 44	cell 890: 47	cell 891: 56	cell 892: 47	cell 893: 45	cell 894: 48	cell 895: 53	cell 896: 48	cell 897: 39	cell 898: 37	cell 899: 39
cell 900: 47	cell 901: 59	cell 902: 53	cell 903: 50	cell 904: 50	cell 905: 37	cell 906: 61	cell 907: 43	cell 908: 52	cell 909: 48	cell 910: 46	cell 911: 39	cell 912: 50	cell 913: 53	cell 914: 46	cell 915: 47	cell 916: 51	cell 917: 28	cell 918: 40	cell 919: 49
cell 920: 49	cell 921: 52	cell 922: 36	cell 923: 48	cell 924: 42	cell 925: 35	cell 926: 49	cell 927: 41	cell 928: 33	cell 929: 41	cell 930: 53	cell 931: 46	cell 932: 46	cell 933: 39	cell 934: 35	cell 935: 39	cell 936: 54	cell 937: 45	cell 938: 53	cell 939: 38
cell 940: 39	cell 941: 59	cell 942: 56	cell 943: 47	cell 944: 47	cell 945: 38	cell 946: 36	cell 947: 38	cell 948: 46	cell 949: 53	cell 950: 43	cell 951: 29	cell 952: 39	cell 953: 32	cell 954: 55	cell 955: 41	cell 956: 45	cell 957: 49	cell 958: 43	cell 959: 37
cell 960: 37	cell 961: 43	cell 962: 42	cell 963: 39	cell 964: 41	cell 965: 52	cell 966: 51	cell 967: 48	cell 968: 53	cell 969: 40	cell 970: 30	cell 971: 43	cell 972: 40	cell 973: 25	cell 974: 45	cell 975: 51	cell 976: 43	cell 977: 47	cell 978: 56	cell 979: 47
cell 980: 48	cell 981: 49	cell 982: 51	cell 983: 47	cell 984: 31	cell 985: 49	cell 986: 38	cell 987: 43	cell 988: 48	cell 989: 41	cell 990: 34	cell 991: 50	cell 992: 45	cell 993: 54	cell 994: 35	cell 995: 51	cell 996: 54	cell 997: 52	cell 998: 44	cell 999: 38

 num ops for word "ADDRES" is: 61

 num ops for word "AT" is: 42

 num ops for word "GETTYSBURG" is: 54

 num ops for word "Fourscore" is: 40

 num ops for word "and" is: 47

 num ops for word "seven" is: 7

 num ops for word "years" is: 1

 num ops for word "ago" is: 43

 num ops for word "our" is: 21

 num ops for word "fathers" is: 29

 num ops for word "brought" is: 35

 num ops for word "forth" is: 49

 num ops for word "on" is: 21

 num ops for word "this" is: 8

 num ops for word "continent" is: 32

 num ops for word "a" is: 56

 num ops for word "new" is: 12

 num ops for word "nation," is: 54

 num ops for word "conceived" is: 34

 num ops for word "in" is: 28

 num ops for word "liberty," is: 55

 num ops for word "and" is: 47

 num ops for word "dedicated" is: 43

 num ops for word "to" is: 9

 num ops for word "the" is: 6

 num ops for word "proposition" is: 18

 num ops for word "that" is: 6

 num ops for word "all" is: 38

 num ops for word "men" is: 23

 num ops for word "are" is: 41

 num ops for word "created" is: 38

 num ops for word "equal." is: 49

 num ops for word "Now" is: 51

 num ops for word "we" is: 1

 num ops for word "are" is: 41

 num ops for word "engaged" is: 33

 num ops for word "in" is: 28

 num ops for word "a" is: 56

 num ops for word "great" is: 25

 num ops for word "civil" is: 35

 num ops for word "war," is: 56

 num ops for word "testing" is: 10

 num ops for word "whether" is: 2

 num ops for word "that" is: 6

 num ops for word "nation," is: 54

 num ops for word "or" is: 19

 num ops for word "any" is: 44

 num ops for word "nation" is: 17

 num ops for word "so" is: 4

 num ops for word "conceived" is: 34

 num ops for word "and" is: 47

 num ops for word "so" is: 4

 num ops for word "dedicated," is: 45

 num ops for word "can" is: 42

 num ops for word "long" is: 18

 num ops for word "endure." is: 54

 num ops for word "We" is: 54

 num ops for word "are" is: 41

 num ops for word "met" is: 20

 num ops for word "on" is: 21

 num ops for word "a" is: 56

 num ops for word "great" is: 25

 num ops for word "battlefield" is: 43

 num ops for word "of" is: 8

 num ops for word "that" is: 6

 num ops for word "war." is: 50

 num ops for word "We" is: 54

 num ops for word "have" is: 33

 num ops for word "come" is: 35

 num ops for word "to" is: 9

 num ops for word "dedicate" is: 36

 num ops for word "a" is: 56

 num ops for word "portion" is: 16

 num ops for word "of" is: 8

 num ops for word "that" is: 6

 num ops for word "field" is: 31

 num ops for word "as" is: 38

 num ops for word "a" is: 56

 num ops for word "final" is: 34

 num ops for word "resting-place" is: 36

 num ops for word "for" is: 38

 num ops for word "those" is: 4

 num ops for word "who" is: 2

 num ops for word "here" is: 23

 num ops for word "gave" is: 26

 num ops for word "their" is: 4

 num ops for word "lives" is: 18

 num ops for word "that" is: 6

 num ops for word "that" is: 6

 num ops for word "nation" is: 17

 num ops for word "might" is: 16

 num ops for word "live." is: 47

 num ops for word "It" is: 37

 num ops for word "is" is: 21

 num ops for word "altogether" is: 45

 num ops for word "fitting" is: 29

 num ops for word "and" is: 47

 num ops for word "proper" is: 13

 num ops for word "that" is: 6

 num ops for word "we" is: 1

 num ops for word "should" is: 13

 num ops for word "do" is: 30

 num ops for word "this." is: 46

 num ops for word "But," is: 49

 num ops for word "in" is: 28

 num ops for word "a" is: 56

 num ops for word "larger" is: 25

 num ops for word "sense," is: 53

 num ops for word "we" is: 1

 num ops for word "cannot" is: 41

 num ops for word "dedicate," is: 43

 num ops for word "we" is: 1

 num ops for word "cannot" is: 41

 num ops for word "consecrate," is: 44

 num ops for word "we" is: 1

 num ops for word "cannot" is: 41

 num ops for word "hallow," is: 47

 num ops for word "this" is: 8

 num ops for word "ground." is: 50

 num ops for word "The" is: 33

 num ops for word "brave" is: 44

 num ops for word "men," is: 50

 num ops for word "living" is: 23

 num ops for word "and" is: 47

 num ops for word "dead," is: 40

 num ops for word "who" is: 2

 num ops for word "struggled" is: 2

 num ops for word "here," is: 51

 num ops for word "have" is: 33

 num ops for word "consecrated" is: 59

 num ops for word "it" is: 19

 num ops for word "far" is: 28

 num ops for word "above" is: 41

 num ops for word "our" is: 21

 num ops for word "poor" is: 16

 num ops for word "power" is: 13

 num ops for word "to" is: 9

 num ops for word "add" is: 42

 num ops for word "or" is: 19

 num ops for word "detract." is: 59

 num ops for word "The" is: 33

 num ops for word "world" is: 1

 num ops for word "will" is: 1

 num ops for word "little" is: 23

 num ops for word "note," is: 43

 num ops for word "nor" is: 16

 num ops for word "long" is: 18

 num ops for word "remember," is: 48

 num ops for word "what" is: 2

 num ops for word "we" is: 1

 num ops for word "say" is: 8

 num ops for word "here;" is: 45

 num ops for word "but" is: 40

 num ops for word "it" is: 19

 num ops for word "can" is: 42

 num ops for word "never" is: 18

 num ops for word "forget" is: 32

 num ops for word "what" is: 2

 num ops for word "they" is: 5

 num ops for word "did" is: 31

 num ops for word "here." is: 51

 num ops for word "It" is: 37

 num ops for word "is" is: 21

 num ops for word "for" is: 38

 num ops for word "us," is: 43

 num ops for word "the" is: 6

 num ops for word "living," is: 55

 num ops for word "rather," is: 39

 num ops for word "to" is: 9

 num ops for word "be" is: 39

 num ops for word "dedicated" is: 43

 num ops for word "here" is: 23

 num ops for word "to" is: 9

 num ops for word "the" is: 6

 num ops for word "unfinished" is: 4

 num ops for word "work" is: 1

 num ops for word "which" is: 1

 num ops for word "they" is: 5

 num ops for word "who" is: 2

 num ops for word "fought" is: 35

 num ops for word "here" is: 23

 num ops for word "have" is: 33

 num ops for word "thus" is: 5

 num ops for word "far" is: 28

 num ops for word "so" is: 4

 num ops for word "nobly" is: 10

 num ops for word "advanced." is: 52

 num ops for word "It" is: 37

 num ops for word "is" is: 21

 num ops for word "rather" is: 11

 num ops for word "for" is: 38

 num ops for word "us" is: 4

 num ops for word "to" is: 9

 num ops for word "be" is: 39

 num ops for word "here" is: 23

 num ops for word "dedicated" is: 43

 num ops for word "to" is: 9

 num ops for word "the" is: 6

 num ops for word "great" is: 25

 num ops for word "task" is: 6

 num ops for word "remaining" is: 15

 num ops for word "before" is: 44

 num ops for word "us;--that" is: 54

 num ops for word "from" is: 36

 num ops for word "these" is: 4

 num ops for word "honored" is: 28

 num ops for word "dead," is: 40

 num ops for word "we" is: 1

 num ops for word "take" is: 8

 num ops for word "increased" is: 22

 num ops for word "devotion" is: 24

 num ops for word "to" is: 9

 num ops for word "that" is: 6

 num ops for word "cause" is: 36

 num ops for word "for" is: 38

 num ops for word "which" is: 1

 num ops for word "they" is: 5

 num ops for word "gave" is: 26

 num ops for word "the" is: 6

 num ops for word "last" is: 23

 num ops for word "full" is: 30

 num ops for word "measure" is: 23

 num ops for word "of" is: 8

 num ops for word "devotion;--that" is: 38

 num ops for word "we" is: 1

 num ops for word "here" is: 23

 num ops for word "highly" is: 34

 num ops for word "resolve" is: 14

 num ops for word "that" is: 6

 num ops for word "these" is: 4

 num ops for word "dead" is: 37

 num ops for word "shall" is: 20

 num ops for word "not" is: 15

 num ops for word "have" is: 33

 num ops for word "died" is: 36

 num ops for word "in" is: 28

 num ops for word "vain;" is: 49

 num ops for word "that" is: 6

 num ops for word "this" is: 8

 num ops for word "nation," is: 54

 num ops for word "under" is: 5

 num ops for word "God," is: 46

 num ops for word "shall" is: 20

 num ops for word "have" is: 33

 num ops for word "a" is: 56

 num ops for word "new" is: 12

 num ops for word "birth" is: 44

 num ops for word "of" is: 8

 num ops for word "freedom;" is: 55

 num ops for word "and" is: 47

 num ops for word "that" is: 6

 num ops for word "government" is: 28

 num ops for word "of" is: 8

 num ops for word "the" is: 6

 num ops for word "people," is: 39

 num ops for word "by" is: 30

 num ops for word "the" is: 6

 num ops for word "people," is: 39

 num ops for word "for" is: 38

 num ops for word "the" is: 6

 num ops for word "people," is: 39

 num ops for word "shall" is: 20

 num ops for word "not" is: 15

 num ops for word "perish" is: 10

 num ops for word "from" is: 36

 num ops for word "the" is: 6

 num ops for word "earth." is: 46

 num ops for word "--ABRAHAM" is: 49

 num ops for word "LINCOLN." is: 44

 num ops for word "Footnote:" is: 43

 num ops for word "Does" is: 52

 num ops for word "the" is: 6

 num ops for word "style" is: 9

 num ops for word "and" is: 47

 num ops for word "sentiment" is: 8

 num ops for word "expresed" is: 56

 num ops for word "remind" is: 13

 num ops for word "you" is: 1

 num ops for word "of" is: 8

 num ops for word "an" is: 58

 num ops for word "older" is: 14

 num ops for word "literature?" is: 49

 num ops for word "Illustrate." is: 45

 num ops for word "Do" is: 52

 num ops for word "Lincoln's" is: 38

 num ops for word "statements" is: 5

 num ops for word "about" is: 39

 num ops for word "war" is: 1

 num ops for word "apply" is: 33

 num ops for word "to" is: 9

 num ops for word "the" is: 6

 num ops for word "present" is: 18

 num ops for word "great" is: 25

 num ops for word "European" is: 42

 num ops for word "conflict?" is: 47

 num ops for word "Illustrate." is: 45

 num ops for word "Point" is: 53

 num ops for word "out" is: 19

 num ops for word "the" is: 6

 num ops for word "effectivenes" is: 37

 num ops for word "of" is: 8

 num ops for word "repetition." is: 48

 num ops for word "Note" is: 40

 num ops for word "the" is: 6

 num ops for word "places" is: 26

 num ops for word "where" is: 2

 num ops for word "the" is: 6

 num ops for word "prose" is: 11

 num ops for word "becomes" is: 41

 num ops for word "almost" is: 49

 num ops for word "poetical." is: 48

 num ops for word "Is" is: 49

 num ops for word "the" is: 6

 num ops for word "appeal" is: 52

 num ops for word "in" is: 28

 num ops for word "the" is: 6

 num ops for word "speeches" is: 5

 num ops for word "to" is: 9

 num ops for word "reason" is: 12

 num ops for word "or" is: 19

 num ops for word "to" is: 9

 num ops for word "feeling?" is: 39

 num ops for word "Do" is: 52

 num ops for word "you" is: 1

 num ops for word "feel" is: 32

 num ops for word "the" is: 6

 num ops for word "personality" is: 16

 num ops for word "of" is: 8

 num ops for word "Lincoln" is: 28

 num ops for word "in" is: 28

 num ops for word "these" is: 4

 num ops for word "speeches?" is: 42

 num ops for word "The" is: 33

 num ops for word "Gettysburg" is: 30

 num ops for word "speech" is: 9

 num ops for word "is" is: 21

 num ops for word "commonly" is: 31

 num ops for word "considered" is: 39

 num ops for word "one" is: 23

 num ops for word "of" is: 8

 num ops for word "the" is: 6

 num ops for word "greatest" is: 28

 num ops for word "speeches" is: 5

 num ops for word "ever" is: 32

 num ops for word "made." is: 39

 num ops for word "Can" is: 48

 num ops for word "you" is: 1

 num ops for word "mention" is: 30

 num ops for word "any" is: 44

 num ops for word "other" is: 14

 num ops for word "famous" is: 40

 num ops for word "speeches" is: 5

 num ops for word "that" is: 6

 num ops for word "are" is: 41

 num ops for word "regarded" is: 11

 num ops for word "as" is: 38

 num ops for word "fine" is: 23

 num ops for word "literature?" is: 49

 num ops for word "SECOND" is: 54

 num ops for word "INAUGURAL" is: 50

 num ops for word "ADDRES" is: 61

 num ops for word "Fellow" is: 50

 num ops for word "Countrymen:" is: 41

 num ops for word "At" is: 44

 num ops for word "this" is: 8

 num ops for word "second" is: 7

 num ops for word "appearing" is: 47

 num ops for word "to" is: 9

 num ops for word "take" is: 8

 num ops for word "the" is: 6

 num ops for word "oath" is: 14

 num ops for word "of" is: 8

 num ops for word "the" is: 6

 num ops for word "presidential" is: 13

 num ops for word "office," is: 36

 num ops for word "there" is: 6

 num ops for word "is" is: 21

 num ops for word "les" is: 36

 num ops for word "occasion" is: 15

 num ops for word "for" is: 38

 num ops for word "an" is: 58

 num ops for word "extended" is: 23

 num ops for word "addres" is: 48

 num ops for word "than" is: 6

 num ops for word "there" is: 6

 num ops for word "was" is: 2

 num ops for word "at" is: 34

 num ops for word "the" is: 6

 num ops for word "first." is: 45

 num ops for word "Then," is: 39

 num ops for word "a" is: 56

 num ops for word "statement," is: 53

 num ops for word "somewhat" is: 7

 num ops for word "in" is: 28

 num ops for word "detail," is: 31

 num ops for word "of" is: 8

 num ops for word "a" is: 56

 num ops for word "course" is: 29

 num ops for word "to" is: 9

 num ops for word "be" is: 39

 num ops for word "pursued," is: 51

 num ops for word "seemed" is: 11

 num ops for word "fitting" is: 29

 num ops for word "and" is: 47

 num ops for word "proper." is: 57

 num ops for word "Now," is: 47

 num ops for word "at" is: 34

 num ops for word "the" is: 6

 num ops for word "expiration" is: 28

 num ops for word "of" is: 8

 num ops for word "four" is: 27

 num ops for word "years," is: 41

 num ops for word "during" is: 37

 num ops for word "which" is: 1

 num ops for word "public" is: 16

 num ops for word "declarations" is: 42

 num ops for word "have" is: 33

 num ops for word "been" is: 47

 num ops for word "constantly" is: 33

 num ops for word "called" is: 35

 num ops for word "forth" is: 49

 num ops for word "on" is: 21

 num ops for word "every" is: 37

 num ops for word "point" is: 8

 num ops for word "and" is: 47

 num ops for word "phase" is: 17

 num ops for word "of" is: 8

 num ops for word "the" is: 6

 num ops for word "great" is: 25

 num ops for word "contest" is: 35

 num ops for word "which" is: 1

 num ops for word "still" is: 9

 num ops for word "absorbs" is: 34

 num ops for word "the" is: 6

 num ops for word "attention" is: 38

 num ops for word "and" is: 47

 num ops for word "engroses" is: 40

 num ops for word "the" is: 6

 num ops for word "energies" is: 23

 num ops for word "of" is: 8

 num ops for word "the" is: 6

 num ops for word "nation," is: 54

 num ops for word "little" is: 23

 num ops for word "that" is: 6

 num ops for word "is" is: 21

 num ops for word "new" is: 12

 num ops for word "could" is: 34

 num ops for word "be" is: 39

 num ops for word "presented." is: 54

 num ops for word "The" is: 33

 num ops for word "progres" is: 38

 num ops for word "of" is: 8

 num ops for word "our" is: 21

 num ops for word "arms," is: 51

 num ops for word "upon" is: 2

 num ops for word "which" is: 1

 num ops for word "all" is: 38

 num ops for word "else" is: 38

 num ops for word "chiefly" is: 35

 num ops for word "depends," is: 56

 num ops for word "is" is: 21

 num ops for word "as" is: 38

 num ops for word "well" is: 2

 num ops for word "known" is: 28

 num ops for word "to" is: 9

 num ops for word "the" is: 6

 num ops for word "public" is: 16

 num ops for word "as" is: 38

 num ops for word "to" is: 9

 num ops for word "myself;" is: 43

 num ops for word "and" is: 47

 num ops for word "it" is: 19

 num ops for word "is," is: 38

 num ops for word "I" is: 52

 num ops for word "trust," is: 57

 num ops for word "reasonably" is: 12

 num ops for word "satisfactory" is: 19

 num ops for word "and" is: 47

 num ops for word "encouraging" is: 23

 num ops for word "to" is: 9

 num ops for word "all." is: 48

 num ops for word "With" is: 42

 num ops for word "high" is: 29

 num ops for word "hope" is: 22

 num ops for word "for" is: 38

 num ops for word "the" is: 6

 num ops for word "future," is: 51

 num ops for word "no" is: 22

 num ops for word "prediction" is: 11

 num ops for word "in" is: 28

 num ops for word "regard" is: 12

 num ops for word "to" is: 9

 num ops for word "it" is: 19

 num ops for word "is" is: 21

 num ops for word "ventured." is: 40

 num ops for word "On" is: 40

 num ops for word "the" is: 6

 num ops for word "occasion" is: 15

 num ops for word "corresponding" is: 28

 num ops for word "to" is: 9

 num ops for word "this" is: 8

 num ops for word "four" is: 27

 num ops for word "years" is: 1

 num ops for word "ago," is: 50

 num ops for word "all" is: 38

 num ops for word "thoughts" is: 6

 num ops for word "were" is: 1

 num ops for word "anxiously" is: 46

 num ops for word "directed" is: 34

 num ops for word "to" is: 9

 num ops for word "an" is: 58

 num ops for word "impending" is: 27

 num ops for word "civil" is: 35

 num ops for word "war." is: 50

 num ops for word "All" is: 49

 num ops for word "dreaded" is: 31

 num ops for word "it," is: 40

 num ops for word "all" is: 38

 num ops for word "sought" is: 10

 num ops for word "to" is: 9

 num ops for word "avert" is: 50

 num ops for word "it." is: 47

 num ops for word "While" is: 43

 num ops for word "the" is: 6

 num ops for word "inaugural" is: 28

 num ops for word "addres" is: 48

 num ops for word "was" is: 2

 num ops for word "being" is: 39

 num ops for word "delivered" is: 33

 num ops for word "from" is: 36

 num ops for word "this" is: 8

 num ops for word "place," is: 51

 num ops for word "devoted" is: 36

 num ops for word "altogether" is: 45

 num ops for word "to" is: 9

 num ops for word "saving" is: 10

 num ops for word "the" is: 6

 num ops for word "Union" is: 39

 num ops for word "without" is: 2

 num ops for word "war," is: 56

 num ops for word "insurgent" is: 28

 num ops for word "agents" is: 52

 num ops for word "were" is: 1

 num ops for word "in" is: 28

 num ops for word "the" is: 6

 num ops for word "city" is: 33

 num ops for word "seeking" is: 10

 num ops for word "to" is: 9

 num ops for word "destroy" is: 23

 num ops for word "it" is: 19

 num ops for word "without" is: 2

 num ops for word "war--seeking" is: 46

 num ops for word "to" is: 9

 num ops for word "disolve" is: 36

 num ops for word "the" is: 6

 num ops for word "Union," is: 51

 num ops for word "and" is: 47

 num ops for word "divide" is: 41

 num ops for word "effects" is: 17

 num ops for word "by" is: 30

 num ops for word "negotiation." is: 51

 num ops for word "Both" is: 52

 num ops for word "parties" is: 18

 num ops for word "deprecated" is: 48

 num ops for word "war;" is: 38

 num ops for word "but" is: 40

 num ops for word "one" is: 23

 num ops for word "of" is: 8

 num ops for word "them" is: 5

 num ops for word "would" is: 3

 num ops for word "make" is: 21

 num ops for word "war" is: 1

 num ops for word "rather" is: 11

 num ops for word "than" is: 6

 num ops for word "let" is: 21

 num ops for word "the" is: 6

 num ops for word "nation" is: 17

 num ops for word "survive;" is: 42

 num ops for word "and" is: 47

 num ops for word "the" is: 6

 num ops for word "other" is: 14

 num ops for word "would" is: 3

 num ops for word "accept" is: 42

 num ops for word "war" is: 1

 num ops for word "rather" is: 11

 num ops for word "than" is: 6

 num ops for word "let" is: 21

 num ops for word "it" is: 19

 num ops for word "perish." is: 48

 num ops for word "And" is: 40

 num ops for word "the" is: 6

 num ops for word "war" is: 1

 num ops for word "came." is: 53

 num ops for word "One-eighth" is: 47

 num ops for word "of" is: 8

 num ops for word "the" is: 6

 num ops for word "whole" is: 1

 num ops for word "population" is: 11

 num ops for word "were" is: 1

 num ops for word "colored" is: 34

 num ops for word "slaves," is: 44

 num ops for word "not" is: 15

 num ops for word "distributed" is: 40

 num ops for word "generally" is: 29

 num ops for word "over" is: 16

 num ops for word "the" is: 6

 num ops for word "Union," is: 51

 num ops for word "but" is: 40

 num ops for word "localized" is: 30

 num ops for word "in" is: 28

 num ops for word "the" is: 6

 num ops for word "southern" is: 6

 num ops for word "part" is: 20

 num ops for word "of" is: 8

 num ops for word "it." is: 47

 num ops for word "These" is: 47

 num ops for word "slaves" is: 9

 num ops for word "constituted" is: 46

 num ops for word "a" is: 56

 num ops for word "peculiar" is: 16

 num ops for word "and" is: 47

 num ops for word "powerful" is: 18

 num ops for word "interest." is: 49

 num ops for word "All" is: 49

 num ops for word "knew" is: 16

 num ops for word "that" is: 6

 num ops for word "this" is: 8

 num ops for word "interest" is: 30

 num ops for word "was," is: 43

 num ops for word "somehow," is: 49

 num ops for word "the" is: 6

 num ops for word "cause" is: 36

 num ops for word "of" is: 8

 num ops for word "the" is: 6

 num ops for word "war." is: 50

 num ops for word "To" is: 48

 num ops for word "strengthen," is: 48

 num ops for word "perpetuate," is: 30

 num ops for word "and" is: 47

 num ops for word "extend" is: 30

 num ops for word "this" is: 8

 num ops for word "interest" is: 30

 num ops for word "was" is: 2

 num ops for word "the" is: 6

 num ops for word "object" is: 24

 num ops for word "for" is: 38

 num ops for word "which" is: 1

 num ops for word "the" is: 6

 num ops for word "insurgents" is: 26

 num ops for word "would" is: 3

 num ops for word "rend" is: 15

 num ops for word "the" is: 6

 num ops for word "Union," is: 51

 num ops for word "even" is: 36

 num ops for word "by" is: 30

 num ops for word "war;" is: 38

 num ops for word "while" is: 3

 num ops for word "government" is: 28

 num ops for word "claimed" is: 48

 num ops for word "no" is: 22

 num ops for word "right" is: 7

 num ops for word "to" is: 9

 num ops for word "do" is: 30

 num ops for word "more" is: 17

 num ops for word "than" is: 6

 num ops for word "to" is: 9

 num ops for word "restrict" is: 10

 num ops for word "the" is: 6

 num ops for word "territorial" is: 6

 num ops for word "enlargement" is: 16

 num ops for word "of" is: 8

 num ops for word "it." is: 47

 num ops for word "Neither" is: 46

 num ops for word "party" is: 20

 num ops for word "expected" is: 32

 num ops for word "for" is: 38

 num ops for word "the" is: 6

 num ops for word "war" is: 1

 num ops for word "the" is: 6

 num ops for word "magnitude" is: 19

 num ops for word "or" is: 19

 num ops for word "the" is: 6

 num ops for word "duration" is: 25

 num ops for word "which" is: 1

 num ops for word "it" is: 19

 num ops for word "has" is: 26

 num ops for word "already" is: 49

 num ops for word "attained." is: 41

 num ops for word "Neither" is: 46

 num ops for word "anticipated" is: 38

 num ops for word "that" is: 6

 num ops for word "the" is: 6

 num ops for word "cause" is: 36

 num ops for word "of" is: 8

 num ops for word "the" is: 6

 num ops for word "conflict" is: 33

 num ops for word "might" is: 16

 num ops for word "cease" is: 29

 num ops for word "with," is: 44

 num ops for word "or" is: 19

 num ops for word "even" is: 36

 num ops for word "before," is: 44

 num ops for word "the" is: 6

 num ops for word "conflict" is: 33

 num ops for word "itself" is: 22

 num ops for word "should" is: 13

 num ops for word "cease." is: 41

 num ops for word "Each" is: 38

 num ops for word "looked" is: 17

 num ops for word "for" is: 38

 num ops for word "an" is: 58

 num ops for word "easier" is: 36

 num ops for word "triumph," is: 38

 num ops for word "and" is: 47

 num ops for word "a" is: 56

 num ops for word "result" is: 10

 num ops for word "les" is: 36

 num ops for word "fundamental" is: 29

 num ops for word "and" is: 47

 num ops for word "astounding." is: 44

 num ops for word "Both" is: 52

 num ops for word "read" is: 12

 num ops for word "the" is: 6

 num ops for word "same" is: 9

 num ops for word "Bible," is: 45

 num ops for word "and" is: 47

 num ops for word "pray" is: 20

 num ops for word "to" is: 9

 num ops for word "the" is: 6

 num ops for word "same" is: 9

 num ops for word "God;" is: 45

 num ops for word "and" is: 47

 num ops for word "each" is: 31

 num ops for word "invokeas" is: 38

 num ops for word "his" is: 19

 num ops for word "aid" is: 50

 num ops for word "against" is: 42

 num ops for word "the" is: 6

 num ops for word "other." is: 58

 num ops for word "It" is: 37

 num ops for word "may" is: 51

 num ops for word "seem" is: 10

 num ops for word "strange" is: 4

 num ops for word "that" is: 6

 num ops for word "any" is: 44

 num ops for word "men" is: 23

 num ops for word "should" is: 13

 num ops for word "dare" is: 35

 num ops for word "to" is: 9

 num ops for word "ask" is: 48

 num ops for word "a" is: 56

 num ops for word "just" is: 25

 num ops for word "God's" is: 51

 num ops for word "asistance" is: 49

 num ops for word "in" is: 28

 num ops for word "wringing" is: 49

 num ops for word "their" is: 4

 num ops for word "bread" is: 44

 num ops for word "from" is: 36

 num ops for word "the" is: 6

 num ops for word "sweat" is: 9

 num ops for word "of" is: 8

 num ops for word "other" is: 14

 num ops for word "men's" is: 47

 num ops for word "faces;" is: 40

 num ops for word "but" is: 40

 num ops for word "let" is: 21

 num ops for word "us" is: 4

 num ops for word "judge" is: 33

 num ops for word "not," is: 50

 num ops for word "that" is: 6

 num ops for word "we" is: 1

 num ops for word "be" is: 39

 num ops for word "not" is: 15

 num ops for word "judged." is: 53

 num ops for word "The" is: 33

 num ops for word "prayers" is: 20

 num ops for word "of" is: 8

 num ops for word "both" is: 45

 num ops for word "could" is: 34

 num ops for word "not" is: 15

 num ops for word "be" is: 39

 num ops for word "answered,--that" is: 35

 num ops for word "of" is: 8

 num ops for word "neither" is: 14

 num ops for word "has" is: 26

 num ops for word "been" is: 47

 num ops for word "answered" is: 53

 num ops for word "fully." is: 35

 num ops for word "The" is: 33

 num ops for word "Almighty" is: 49

 num ops for word "has" is: 26

 num ops for word "his" is: 19

 num ops for word "own" is: 18

 num ops for word "purposes." is: 44

 num ops for word ""Woe" is: 39

 num ops for word "unto" is: 3

 num ops for word "the" is: 6

 num ops for word "world" is: 1

 num ops for word "because" is: 45

 num ops for word "of" is: 8

 num ops for word "offenses!" is: 35

 num ops for word "for" is: 38

 num ops for word "it" is: 19

 num ops for word "must" is: 22

 num ops for word "needs" is: 17

 num ops for word "be" is: 39

 num ops for word "that" is: 6

 num ops for word "offenses" is: 10

 num ops for word "come;" is: 43

 num ops for word "but" is: 40

 num ops for word "woe" is: 2

 num ops for word "to" is: 9

 num ops for word "that" is: 6

 num ops for word "man" is: 16

 num ops for word "by" is: 30

 num ops for word "whom" is: 2

 num ops for word "the" is: 6

 num ops for word "offense" is: 13

 num ops for word "cometh."" is: 46

 num ops for word "If" is: 37

 num ops for word "we" is: 1

 num ops for word "shall" is: 20

 num ops for word "suppose" is: 5

 num ops for word "that" is: 6

 num ops for word "American" is: 41

 num ops for word "slavery" is: 12

 num ops for word "is" is: 21

 num ops for word "one" is: 23

 num ops for word "of" is: 8

 num ops for word "these" is: 4

 num ops for word "offenses" is: 10

 num ops for word "which," is: 48

 num ops for word "in" is: 28

 num ops for word "the" is: 6

 num ops for word "providence" is: 7

 num ops for word "of" is: 8

 num ops for word "God," is: 46

 num ops for word "must" is: 22

 num ops for word "needs" is: 17

 num ops for word "come," is: 58

 num ops for word "but" is: 40

 num ops for word "which," is: 48

 num ops for word "having" is: 19

 num ops for word "continued" is: 47

 num ops for word "through" is: 3

 num ops for word "his" is: 19

 num ops for word "appointed" is: 43

 num ops for word "time," is: 55

 num ops for word "He" is: 42

 num ops for word "now" is: 22

 num ops for word "wills" is: 44

 num ops for word "to" is: 9

 num ops for word "remove," is: 43

 num ops for word "and" is: 47

 num ops for word "that" is: 6

 num ops for word "He" is: 42

 num ops for word "gives" is: 27

 num ops for word "to" is: 9

 num ops for word "both" is: 45

 num ops for word "North" is: 44

 num ops for word "and" is: 47

 num ops for word "South" is: 45

 num ops for word "this" is: 8

 num ops for word "terrible" is: 8

 num ops for word "war" is: 1

 num ops for word "as" is: 38

 num ops for word "the" is: 6

 num ops for word "woe" is: 2

 num ops for word "due" is: 34

 num ops for word "to" is: 9

 num ops for word "those" is: 4

 num ops for word "by" is: 30

 num ops for word "whom" is: 2

 num ops for word "the" is: 6

 num ops for word "offense" is: 13

 num ops for word "came," is: 35

 num ops for word "shall" is: 20

 num ops for word "we" is: 1

 num ops for word "discern" is: 31

 num ops for word "therein" is: 4

 num ops for word "any" is: 44

 num ops for word "departure" is: 44

 num ops for word "from" is: 36

 num ops for word "those" is: 4

 num ops for word "divine" is: 31

 num ops for word "attributes" is: 45

 num ops for word "which" is: 1

 num ops for word "the" is: 6

 num ops for word "believers" is: 46

 num ops for word "in" is: 28

 num ops for word "a" is: 56

 num ops for word "living" is: 23

 num ops for word "God" is: 37

 num ops for word "always" is: 49

 num ops for word "ascribe" is: 47

 num ops for word "to" is: 9

 num ops for word "Him?" is: 49

 num ops for word "Fondly" is: 45

 num ops for word "do" is: 30

 num ops for word "we" is: 1

 num ops for word "hope," is: 42

 num ops for word "fervently" is: 38

 num ops for word "do" is: 30

 num ops for word "we" is: 1

 num ops for word "pray," is: 52

 num ops for word "that" is: 6

 num ops for word "this" is: 8

 num ops for word "mighty" is: 27

 num ops for word "scourge" is: 5

 num ops for word "of" is: 8

 num ops for word "war" is: 1

 num ops for word "may" is: 51

 num ops for word "speedily" is: 10

 num ops for word "pas" is: 55

 num ops for word "away." is: 46

 num ops for word "Yet," is: 37

 num ops for word "if" is: 21

 num ops for word "God" is: 37

 num ops for word "wills" is: 44

 num ops for word "that" is: 6

 num ops for word "it" is: 19

 num ops for word "continue" is: 37

 num ops for word "until" is: 2

 num ops for word "all" is: 38

 num ops for word "the" is: 6

 num ops for word "wealth" is: 1

 num ops for word "piled" is: 15

 num ops for word "by" is: 30

 num ops for word "the" is: 6

 num ops for word "bondsman's" is: 42

 num ops for word "two" is: 4

 num ops for word "hundred" is: 25

 num ops for word "and" is: 47

 num ops for word "fifty" is: 24

 num ops for word "years" is: 1

 num ops for word "of" is: 8

 num ops for word "unrequited" is: 37

 num ops for word "toil" is: 5

 num ops for word "shall" is: 20

 num ops for word "be" is: 39

 num ops for word "sunk," is: 52

 num ops for word "and" is: 47

 num ops for word "until" is: 2

 num ops for word "every" is: 37

 num ops for word "drop" is: 31

 num ops for word "of" is: 8

 num ops for word "blood" is: 34

 num ops for word "drawn" is: 31

 num ops for word "with" is: 1

 num ops for word "the" is: 6

 num ops for word "lash" is: 22

 num ops for word "shall" is: 20

 num ops for word "be" is: 39

 num ops for word "paid" is: 12

 num ops for word "by" is: 30

 num ops for word "another" is: 47

 num ops for word "drawn" is: 31

 num ops for word "with" is: 1

 num ops for word "the" is: 6

 num ops for word "sword," is: 47

 num ops for word "as" is: 38

 num ops for word "was" is: 2

 num ops for word "said" is: 11

 num ops for word "three" is: 3

 num ops for word "thousand" is: 4

 num ops for word "years" is: 1

 num ops for word "ago," is: 50

 num ops for word "so" is: 4

 num ops for word "still" is: 9

 num ops for word "it" is: 19

 num ops for word "must" is: 22

 num ops for word "be" is: 39

 num ops for word "said," is: 54

 num ops for word ""The" is: 49

 num ops for word "judgments" is: 32

 num ops for word "of" is: 8

 num ops for word "the" is: 6

 num ops for word "Lord" is: 46

 num ops for word "are" is: 41

 num ops for word "true" is: 5

 num ops for word "and" is: 47

 num ops for word "righteous" is: 12

 num ops for word "altogether."" is: 42

 num ops for word "With" is: 42

 num ops for word "malice" is: 22

 num ops for word "toward" is: 8

 num ops for word "none," is: 42

 num ops for word "with" is: 1

 num ops for word "charity" is: 42

 num ops for word "for" is: 38

 num ops for word "all," is: 49

 num ops for word "with" is: 1

 num ops for word "firmnes" is: 45

 num ops for word "in" is: 28

 num ops for word "the" is: 6

 num ops for word "right," is: 54

 num ops for word "as" is: 38

 num ops for word "God" is: 37

 num ops for word "gives" is: 27

 num ops for word "us" is: 4

 num ops for word "to" is: 9

 num ops for word "see" is: 11

 num ops for word "the" is: 6

 num ops for word "right," is: 54

 num ops for word "let" is: 21

 num ops for word "us" is: 4

 num ops for word "strive" is: 7

 num ops for word "on" is: 21

 num ops for word "to" is: 9

 num ops for word "finish" is: 34

 num ops for word "the" is: 6

 num ops for word "work" is: 1

 num ops for word "we" is: 1

 num ops for word "are" is: 41

 num ops for word "in;" is: 40

 num ops for word "to" is: 9

 num ops for word "biind" is: 54

 num ops for word "up" is: 2

 num ops for word "the" is: 6

 num ops for word "nation's" is: 49

 num ops for word "wounds;" is: 52

 num ops for word "to" is: 9

 num ops for word "care" is: 31

 num ops for word "for" is: 38

 num ops for word "him" is: 21

 num ops for word "who" is: 2

 num ops for word "shall" is: 20

 num ops for word "have" is: 33

 num ops for word "borne" is: 37

 num ops for word "the" is: 6

 num ops for word "battle," is: 50

 num ops for word "and" is: 47

 num ops for word "for" is: 38

 num ops for word "his" is: 19

 num ops for word "widow" is: 2

 num ops for word "and" is: 47

 num ops for word "his" is: 19

 num ops for word "orphan,--to" is: 47

 num ops for word "do" is: 30

 num ops for word "all" is: 38

 num ops for word "which" is: 1

 num ops for word "may" is: 51

 num ops for word "achieve" is: 30

 num ops for word "and" is: 47

 num ops for word "cherish" is: 32

 num ops for word "a" is: 56

 num ops for word "just" is: 25

 num ops for word "and" is: 47

 num ops for word "lasting" is: 23

 num ops for word "peace" is: 15

 num ops for word "among" is: 42

 num ops for word "ourselfes," is: 43

 num ops for word "and" is: 47

 num ops for word "with" is: 1

 num ops for word "all" is: 38

 num ops for word "nations." is: 54

 num ops for word "--ABRAHAM" is: 49

 num ops for word "LINCOLN." is: 44

 num ops for word "AN" is: 49

 num ops for word "APPRECIATION" is: 30

 num ops for word "OF" is: 56

 num ops for word "LINCOLN" is: 35

 num ops for word "To" is: 48

 num ops for word "these" is: 4

 num ops for word "qualifications" is: 12

 num ops for word "of" is: 8

 num ops for word "high" is: 29

 num ops for word "literary" is: 23

 num ops for word "excellence," is: 31

 num ops for word "and" is: 47

 num ops for word "easy" is: 44

 num ops for word "practical" is: 20

 num ops for word "mastery" is: 27

 num ops for word "of" is: 8

 num ops for word "affairs" is: 46

 num ops for word "of" is: 8

 num ops for word "transcendent" is: 7

 num ops for word "importance," is: 49

 num ops for word "we" is: 1

 num ops for word "must" is: 22

 num ops for word "add" is: 42

 num ops for word "as" is: 38

 num ops for word "an" is: 58

 num ops for word "explanation" is: 34

 num ops for word "of" is: 8

 num ops for word "his" is: 19

 num ops for word "immediate" is: 22

 num ops for word "and" is: 47

 num ops for word "world-wide" is: 47

 num ops for word "fame," is: 41

 num ops for word "his" is: 19

 num ops for word "posesion" is: 47

 num ops for word "of" is: 8

 num ops for word "certain" is: 34

 num ops for word "moral" is: 23

 num ops for word "qualities" is: 17

 num ops for word "rarely" is: 7

 num ops for word "combined" is: 54

 num ops for word "in" is: 28

 num ops for word "such" is: 7

 num ops for word "high" is: 29

 num ops for word "degree" is: 35

 num ops for word "in" is: 28

 num ops for word "one" is: 23

 num ops for word "individual." is: 40

 num ops for word "His" is: 43

 num ops for word "heart" is: 35

 num ops for word "was" is: 2

 num ops for word "so" is: 4

 num ops for word "tender" is: 5

 num ops for word "that" is: 6

 num ops for word "he" is: 35

 num ops for word "would" is: 3

 num ops for word "dismount" is: 31

 num ops for word "from" is: 36

 num ops for word "his" is: 19

 num ops for word "horse" is: 31

 num ops for word "in" is: 28

 num ops for word "a" is: 56

 num ops for word "forest" is: 27

 num ops for word "to" is: 9

 num ops for word "replace" is: 14

 num ops for word "in" is: 28

 num ops for word "their" is: 4

 num ops for word "nest" is: 17

 num ops for word "young" is: 1

 num ops for word "birds" is: 38

 num ops for word "which" is: 1

 num ops for word "had" is: 23

 num ops for word "fallen" is: 32

 num ops for word "by" is: 30

 num ops for word "the" is: 6

 num ops for word "roadside;" is: 57

 num ops for word "he" is: 35

 num ops for word "could" is: 34

 num ops for word "not" is: 15

 num ops for word "sleep" is: 6

 num ops for word "at" is: 34

 num ops for word "night" is: 22

 num ops for word "if" is: 21

 num ops for word "he" is: 35

 num ops for word "knew" is: 16

 num ops for word "that" is: 6

 num ops for word "a" is: 56

 num ops for word "soldier-boy" is: 49

 num ops for word "was" is: 2

 num ops for word "under" is: 5

 num ops for word "sentence" is: 14

 num ops for word "of" is: 8

 num ops for word "death;" is: 46

 num ops for word "he" is: 35

 num ops for word "could" is: 34

 num ops for word "not," is: 50

 num ops for word "even" is: 36

 num ops for word "at" is: 34

 num ops for word "the" is: 6

 num ops for word "bidding" is: 46

 num ops for word "of" is: 8

 num ops for word "duty" is: 31

 num ops for word "or" is: 19

 num ops for word "policy," is: 48

 num ops for word "refuse" is: 8

 num ops for word "the" is: 6

 num ops for word "prayer" is: 21

 num ops for word "of" is: 8

 num ops for word "age" is: 48

 num ops for word "or" is: 19

 num ops for word "helplesnes" is: 41

 num ops for word "in" is: 28

 num ops for word "distres." is: 47

 num ops for word "Children" is: 41

 num ops for word "instinctively" is: 22

 num ops for word "loved" is: 24

 num ops for word "him;" is: 45

 num ops for word "they" is: 5

 num ops for word "never" is: 18

 num ops for word "found" is: 31

 num ops for word "his" is: 19

 num ops for word "rugged" is: 8

 num ops for word "features" is: 27

 num ops for word "ugly;" is: 49

 num ops for word "his" is: 19

 num ops for word "sympathies" is: 4

 num ops for word "were" is: 1

 num ops for word "quick" is: 19

 num ops for word "and" is: 47

 num ops for word "seemingly" is: 11

 num ops for word "unlimited." is: 43

 num ops for word "He" is: 42

 num ops for word "was" is: 2

 num ops for word "absolutely" is: 54

 num ops for word "without" is: 2

 num ops for word "prejudice" is: 12

 num ops for word "of" is: 8

 num ops for word "clas" is: 45

 num ops for word "or" is: 19

 num ops for word "condition." is: 47

 num ops for word "Frederick" is: 29

 num ops for word "Douglas" is: 30

 num ops for word "Footnote:" is: 43

 num ops for word "Frederick" is: 29

 num ops for word "Douglas:" is: 39

 num ops for word "a" is: 56

 num ops for word "noted" is: 19

 num ops for word "orator" is: 18

 num ops for word "and" is: 47

 num ops for word "journalist." is: 30

 num ops for word "He" is: 42

 num ops for word "was" is: 2

 num ops for word "born" is: 50

 num ops for word "(a" is: 40

 num ops for word "slave)" is: 39

 num ops for word "in" is: 28

 num ops for word "1817" is: 49

 num ops for word "and" is: 47

 num ops for word "died" is: 36

 num ops for word "in" is: 28

 num ops for word "1895." is: 45

 num ops for word "says" is: 8

 num ops for word "he" is: 35

 num ops for word "was" is: 2

 num ops for word "the" is: 6

 num ops for word "only" is: 12

 num ops for word "man" is: 16

 num ops for word "of" is: 8

 num ops for word "distinction" is: 45

 num ops for word "he" is: 35

 num ops for word "ever" is: 32

 num ops for word "met" is: 20

 num ops for word "who" is: 2

 num ops for word "never" is: 18

 num ops for word "reminded" is: 13

 num ops for word "him," is: 48

 num ops for word "by" is: 30

 num ops for word "word" is: 1

 num ops for word "or" is: 19

 num ops for word "manner," is: 52

 num ops for word "of" is: 8

 num ops for word "his" is: 19

 num ops for word "color;" is: 54

 num ops for word "he" is: 35

 num ops for word "was" is: 2

 num ops for word "as" is: 38

 num ops for word "just" is: 25

 num ops for word "and" is: 47

 num ops for word "generous" is: 26

 num ops for word "to" is: 9

 num ops for word "the" is: 6

 num ops for word "rich" is: 9

 num ops for word "and" is: 47

 num ops for word "well-born" is: 42

 num ops for word "as" is: 38

 num ops for word "to" is: 9

 num ops for word "the" is: 6

 num ops for word "poor" is: 16

 num ops for word "and" is: 47

 num ops for word "humble--a" is: 48

 num ops for word "thing" is: 6

 num ops for word "rare" is: 20

 num ops for word "among" is: 42

 num ops for word "politicians." is: 41

 num ops for word "He" is: 42

 num ops for word "was" is: 2

 num ops for word "tolerant" is: 2

 num ops for word "even" is: 36

 num ops for word "of" is: 8

 num ops for word "evil:" is: 41

 num ops for word "though" is: 4

 num ops for word "no" is: 22

 num ops for word "man" is: 16

 num ops for word "can" is: 42

 num ops for word "ever" is: 32

 num ops for word "have" is: 33

 num ops for word "lived" is: 23

 num ops for word "with" is: 1

 num ops for word "a" is: 56

 num ops for word "loftier" is: 43

 num ops for word "scorn" is: 6

 num ops for word "of" is: 8

 num ops for word "meannes" is: 45

 num ops for word "and" is: 47

 num ops for word "selfishnes," is: 42

 num ops for word "he" is: 35

 num ops for word "yet" is: 1

 num ops for word "recognized" is: 16

 num ops for word "their" is: 4

 num ops for word "existence" is: 28

 num ops for word "and" is: 47

 num ops for word "counted" is: 41

 num ops for word "with" is: 1

 num ops for word "them." is: 49

 num ops for word "He" is: 42

 num ops for word "said" is: 11

 num ops for word "one" is: 23

 num ops for word "day," is: 43

 num ops for word "with" is: 1

 num ops for word "a" is: 56

 num ops for word "flash" is: 25

 num ops for word "of" is: 8

 num ops for word "cynical" is: 40

 num ops for word "wisdom" is: 1

 num ops for word "worthy" is: 1

 num ops for word "of" is: 8

 num ops for word "a" is: 56

 num ops for word "La" is: 46

 num ops for word "Rochefoucauld," is: 54

 num ops for word "Footnote:" is: 43

 num ops for word "La" is: 46

 num ops for word "Rochefoucauld:" is: 46

 num ops for word "Francois" is: 33

 num ops for word "La" is: 46

 num ops for word "Rochefoucauld" is: 35

 num ops for word "was" is: 2

 num ops for word "a" is: 56

 num ops for word "French" is: 29

 num ops for word "writer" is: 1

 num ops for word "and" is: 47

 num ops for word "moralist" is: 45

 num ops for word "of" is: 8

 num ops for word "the" is: 6

 num ops for word "seventeenth" is: 8

 num ops for word "century." is: 47

 num ops for word "that" is: 6

 num ops for word "honest" is: 28

 num ops for word "statesmanship" is: 54

 num ops for word "was" is: 2

 num ops for word "the" is: 6

 num ops for word "employment" is: 25

 num ops for word "of" is: 8

 num ops for word "individual" is: 19

 num ops for word "meannes" is: 45

 num ops for word "for" is: 38

 num ops for word "the" is: 6

 num ops for word "public" is: 16

 num ops for word "good." is: 56

 num ops for word "He" is: 42

 num ops for word "never" is: 18

 num ops for word "asked" is: 38

 num ops for word "perfection" is: 18

 num ops for word "of" is: 8

 num ops for word "any" is: 44

 num ops for word "one;" is: 50

 num ops for word "he" is: 35

 num ops for word "did" is: 31

 num ops for word "not" is: 15

 num ops for word "even" is: 36

 num ops for word "insist," is: 56

 num ops for word "for" is: 38

 num ops for word "others," is: 50

 num ops for word "upon" is: 2

 num ops for word "the" is: 6

 num ops for word "high" is: 29

 num ops for word "standards" is: 9

 num ops for word "he" is: 35

 num ops for word "set" is: 10

 num ops for word "up" is: 2

 num ops for word "for" is: 38

 num ops for word "himself." is: 46

 num ops for word "At" is: 44

 num ops for word "a" is: 56

 num ops for word "time" is: 8

 num ops for word "before" is: 44

 num ops for word "the" is: 6

 num ops for word "word" is: 1

 num ops for word "was" is: 2

 num ops for word "invented" is: 20

 num ops for word "he" is: 35

 num ops for word "was" is: 2

 num ops for word "the" is: 6

 num ops for word "first" is: 32

 num ops for word "of" is: 8

 num ops for word "opportunists." is: 40

 num ops for word "With" is: 42

 num ops for word "the" is: 6

 num ops for word "fire" is: 27

 num ops for word "of" is: 8

 num ops for word "a" is: 56

 num ops for word "reformer" is: 12

 num ops for word "and" is: 47

 num ops for word "a" is: 56

 num ops for word "martyr" is: 21

 num ops for word "in" is: 28

 num ops for word "his" is: 19

 num ops for word "heart," is: 49

 num ops for word "he" is: 35

 num ops for word "yet" is: 1

 num ops for word "proceeded" is: 6

 num ops for word "by" is: 30

 num ops for word "the" is: 6

 num ops for word "ways" is: 3

 num ops for word "of" is: 8

 num ops for word "cautious" is: 36

 num ops for word "and" is: 47

 num ops for word "practical" is: 20

 num ops for word "statecraft." is: 37

 num ops for word "He" is: 42

 num ops for word "always" is: 49

 num ops for word "worked" is: 2

 num ops for word "with" is: 1

 num ops for word "things" is: 4

 num ops for word "as" is: 38

 num ops for word "they" is: 5

 num ops for word "were," is: 35

 num ops for word "while" is: 3

 num ops for word "never" is: 18

 num ops for word "relinquishing" is: 13

 num ops for word "the" is: 6

 num ops for word "desire" is: 31

 num ops for word "and" is: 47

 num ops for word "effort" is: 33

 num ops for word "to" is: 9

 num ops for word "make" is: 21

 num ops for word "them" is: 5

 num ops for word "better." is: 25

 num ops for word "To" is: 48

 num ops for word "a" is: 56

 num ops for word "hope" is: 22

 num ops for word "which" is: 1

 num ops for word "saw" is: 9

 num ops for word "the" is: 6

 num ops for word "Delectable" is: 41

 num ops for word "Mountains" is: 48

 num ops for word "of" is: 8

 num ops for word "absolute" is: 50

 num ops for word "justice" is: 16

 num ops for word "and" is: 47

 num ops for word "peace" is: 15

 num ops for word "in" is: 28

 num ops for word "the" is: 6

 num ops for word "future," is: 51

 num ops for word "to" is: 9

 num ops for word "a" is: 56

 num ops for word "faith" is: 21

 num ops for word "that" is: 6

 num ops for word "God" is: 37

 num ops for word "in" is: 28

 num ops for word "his" is: 19

 num ops for word "own" is: 18

 num ops for word "time" is: 8

 num ops for word "would" is: 3

 num ops for word "give" is: 32

 num ops for word "to" is: 9

 num ops for word "all" is: 38

 num ops for word "men" is: 23

 num ops for word "the" is: 6

 num ops for word "things" is: 4

 num ops for word "convenient" is: 38

 num ops for word "to" is: 9

 num ops for word "them," is: 52

 num ops for word "he" is: 35

 num ops for word "added" is: 57

 num ops for word "a" is: 56

 num ops for word "charity" is: 42

 num ops for word "which" is: 1

 num ops for word "embraced" is: 30

 num ops for word "in" is: 28

 num ops for word "its" is: 24

 num ops for word "deep" is: 37

 num ops for word "bosom" is: 36

 num ops for word "all" is: 38

 num ops for word "the" is: 6

 num ops for word "good" is: 28

 num ops for word "and" is: 47

 num ops for word "the" is: 6

 num ops for word "bad," is: 46

 num ops for word "all" is: 38

 num ops for word "the" is: 6

 num ops for word "virtues" is: 1

 num ops for word "and" is: 47

 num ops for word "the" is: 6

 num ops for word "infirmities" is: 35

 num ops for word "of" is: 8

 num ops for word "men," is: 50

 num ops for word "and" is: 47

 num ops for word "a" is: 56

 num ops for word "patience" is: 20

 num ops for word "like" is: 30

 num ops for word "that" is: 6

 num ops for word "of" is: 8

 num ops for word "nature," is: 59

 num ops for word "which" is: 1

 num ops for word "in" is: 28

 num ops for word "its" is: 24

 num ops for word "vast" is: 2

 num ops for word "and" is: 47

 num ops for word "fruitful" is: 34

 num ops for word "activity" is: 60

 num ops for word "knows" is: 17

 num ops for word "neither" is: 14

 num ops for word "haste" is: 33

 num ops for word "nor" is: 16

 num ops for word "rest." is: 33

 num ops for word "--JOHN" is: 52

 num ops for word "HAY." is: 35

 num ops for word "Footnote:" is: 43

 num ops for word "Do" is: 52

 num ops for word "you" is: 1

 num ops for word "know" is: 20

 num ops for word "any" is: 44

 num ops for word "facts" is: 23

 num ops for word "of" is: 8

 num ops for word "Lincoln's" is: 38

 num ops for word "life" is: 23

 num ops for word "that" is: 6

 num ops for word "would" is: 3

 num ops for word "support" is: 7

 num ops for word "some" is: 9

 num ops for word "of" is: 8

 num ops for word "these" is: 4

 num ops for word "statements?" is: 43

 num ops for word "What" is: 49

 num ops for word "has" is: 26

 num ops for word "come" is: 35

 num ops for word "to" is: 9

 num ops for word "be" is: 39

 num ops for word "the" is: 6

 num ops for word "universally" is: 3

 num ops for word "accepted" is: 42

 num ops for word "estimate" is: 37

 num ops for word "of" is: 8

 num ops for word "Lincoln?" is: 40

 num ops for word "What" is: 49

 num ops for word "qualities" is: 17

 num ops for word "of" is: 8

 num ops for word "Lincoln" is: 28

 num ops for word "seem" is: 10

 num ops for word "most" is: 19

 num ops for word "to" is: 9

 num ops for word "impres" is: 56

 num ops for word "the" is: 6

 num ops for word "writer?" is: 44

 num ops for word "Can" is: 48

 num ops for word "you" is: 1

 num ops for word "point" is: 8

 num ops for word "to" is: 9

 num ops for word "anything" is: 42

 num ops for word "in" is: 28

 num ops for word "Lincoln's" is: 38

 num ops for word "addreses" is: 55

 num ops for word "that" is: 6

 num ops for word "proves" is: 14

 num ops for word "the" is: 6

 num ops for word "correctnes" is: 49

 num ops for word "of" is: 8

 num ops for word "the" is: 6

 num ops for word "popular" is: 14

 num ops for word "judgment" is: 30

 num ops for word "of" is: 8

 num ops for word "him?" is: 54

 num ops for word "Point" is: 53

 num ops for word "out" is: 19

 num ops for word "instances" is: 27

 num ops for word "of" is: 8

 num ops for word "contrast" is: 29

 num ops for word "in" is: 28

 num ops for word "this" is: 8

 num ops for word "selection." is: 50

 num ops for word "Do" is: 52

 num ops for word "you" is: 1

 num ops for word "know" is: 20

 num ops for word "anything" is: 42

 num ops for word "about" is: 39

 num ops for word "the" is: 6

 num ops for word ""Lincoln" is: 46

 num ops for word "Mythology"" is: 53

 num ops for word "that" is: 6

 num ops for word "has" is: 26

 num ops for word "grown" is: 33

 num ops for word "up" is: 2

 num ops for word "since" is: 11

 num ops for word "the" is: 6

 num ops for word "war?" is: 35

 num ops for word "war?" is: 35

 spelling data: 

 number of words read: 1574

 number of correct words: 1205

 number of misspelled words: 369

 avg. number of ops for misspelled words: 46

 avg. number of ops for correct words: 19
